<svg xmlns="http://www.w3.org/2000/svg" width="50.502" height="61.205" viewBox="0 0 50.502 61.205">
  <path id="Path_4" data-name="Path 4" d="M697.035,784.364v-29.27l30.52-30.52,18.274,18.274" transform="translate(-696.035 -723.159)" fill="none" stroke="#545454" stroke-width="2"/>
</svg>
