<svg xmlns="http://www.w3.org/2000/svg" width="23.239" height="22.101" viewBox="0 0 23.239 22.101">
  <path id="Icon_metro-star-full" data-name="Icon metro-star-full" d="M25.809,11.125,17.781,9.958,14.19,2.683,10.6,9.958,2.571,11.125l5.81,5.663-1.371,8,7.181-3.775,7.181,3.775-1.371-8,5.81-5.663Z" transform="translate(-2.571 -2.683)" fill="#b8d442"/>
</svg>
