<svg xmlns="http://www.w3.org/2000/svg" width="32.5" height="19.5" viewBox="0 0 32.5 19.5">
  <path id="Icon_awesome-bed" data-name="Icon awesome-bed" d="M8.938,14.25a4.063,4.063,0,1,0-4.062-4.062A4.067,4.067,0,0,0,8.938,14.25Zm17.875-6.5H15.438a.812.812,0,0,0-.812.813v7.313H3.25V5.313A.812.812,0,0,0,2.438,4.5H.813A.812.812,0,0,0,0,5.313V23.188A.812.812,0,0,0,.813,24H2.438a.812.812,0,0,0,.813-.812V20.75h26v2.438a.812.812,0,0,0,.813.813h1.625a.812.812,0,0,0,.813-.812v-9.75A5.687,5.687,0,0,0,26.813,7.75Z" transform="translate(0 -4.5)" fill="#b8d442"/>
</svg>
