<svg xmlns="http://www.w3.org/2000/svg" width="111.907" height="109.711" viewBox="0 0 111.907 109.711">
  <g id="Gruppe_252" data-name="Gruppe 252" transform="translate(10)">
    <g id="Gruppe_245" data-name="Gruppe 245" transform="translate(-10)">
      <g id="Gruppe_241" data-name="Gruppe 241">
        <g id="Gruppe_239" data-name="Gruppe 239" transform="translate(24.232 25.389)">
          <line id="Linie_103" data-name="Linie 103" x1="29.131" y1="29.131" transform="translate(53.031 49.676)" fill="#161615"/>
          <path id="Pfad_431" data-name="Pfad 431" d="M385.942,477.44a5.5,5.5,0,0,1-7.775.022l-.022-.022-29.23-29.23a45.68,45.68,0,0,0,4-3.794,41.114,41.114,0,0,0,3.542-4.256l29.481,29.476a5.508,5.508,0,0,1,.014,7.789Z" transform="translate(-299.888 -394.739)" fill="#fff"/>
          <line id="Linie_104" data-name="Linie 104" x1="0.031" y1="0.031" transform="translate(50.825 47.471)" fill="#161615"/>
          <line id="Linie_105" data-name="Linie 105" x1="2.489" y1="2.489" transform="translate(35.275 31.92)" fill="#161615"/>
          <path id="Pfad_432" data-name="Pfad 432" d="M375.758,448.494v20.3H362.685V450.716H351.071V468.8H337.994V448.413l19.313-18.37Z" transform="translate(-337.994 -430.043)" fill="#fff"/>
          <path id="Pfad_433" data-name="Pfad 433" d="M352.47,443.991a48.524,48.524,0,0,1-4.018,3.785l-.032-.032a48.473,48.473,0,0,0,4.018-3.784,40.172,40.172,0,0,0,3.5-4.3l.031.031A39.762,39.762,0,0,1,352.47,443.991Z" transform="translate(-301.611 -396.49)" fill="#fff"/>
        </g>
        <g id="Gruppe_240" data-name="Gruppe 240">
          <path id="Pfad_434" data-name="Pfad 434" d="M390.618,456.93a2.3,2.3,0,0,1-3.255.009l-.009-.009L363.66,433.253,339.979,456.93a2.272,2.272,0,0,1-1.621.678,2.22,2.22,0,0,1-1.625-.678,2.263,2.263,0,0,1-.045-3.2l.045-.045,25.3-25.315a2.306,2.306,0,0,1,3.264,0l25.319,25.315c1.324,0,2.4.3,2.4,1.625S391.942,457.706,390.618,456.93Z" transform="translate(-320.555 -412.857)" fill="#fff"/>
          <path id="Pfad_435" data-name="Pfad 435" d="M376.128,424.632a43.178,43.178,0,1,0,27.537,76.43,47.8,47.8,0,0,0,4.018-3.785,39.329,39.329,0,0,0,3.5-4.3,43.14,43.14,0,0,0-35.057-68.345Zm35.021,68.313a39.651,39.651,0,0,1-3.5,4.3,48.522,48.522,0,0,1-4.018,3.785,43.338,43.338,0,1,1,7.515-8.081Z" transform="translate(-332.596 -424.388)" fill="#fff"/>
        </g>
      </g>
      <g id="Gruppe_242" data-name="Gruppe 242">
        <path id="Pfad_436" data-name="Pfad 436" d="M376.128,424.632a43.178,43.178,0,1,0,27.537,76.43,47.8,47.8,0,0,0,4.018-3.785,39.329,39.329,0,0,0,3.5-4.3,43.14,43.14,0,0,0-35.057-68.345Zm35.021,68.313a39.651,39.651,0,0,1-3.5,4.3,48.522,48.522,0,0,1-4.018,3.785,43.338,43.338,0,1,1,7.515-8.081Z" transform="translate(-332.596 -424.388)" fill="#fff"/>
        <path id="Pfad_437" data-name="Pfad 437" d="M375.814,424.452a43.131,43.131,0,1,0,27.506,76.354,47.824,47.824,0,0,0,4.018-3.784,40.228,40.228,0,0,0,3.5-4.3,43.119,43.119,0,0,0-35.025-68.264Zm32.8,66.042a41.687,41.687,0,0,1-7.515,8.081,40.015,40.015,0,1,1,7.515-8.081Z" transform="translate(-332.283 -424.163)" fill="#fff"/>
      </g>
      <g id="Gruppe_244" data-name="Gruppe 244" transform="translate(15.493 14.834)">
        <g id="Gruppe_243" data-name="Gruppe 243">
          <path id="Pfad_438" data-name="Pfad 438" d="M390.618,456.931a2.3,2.3,0,0,1-3.255.009l-.009-.009L363.66,433.25l-23.681,23.681a2.272,2.272,0,0,1-1.621.678,2.238,2.238,0,0,1-1.625-.678,2.263,2.263,0,0,1-.045-3.2l.045-.045,25.3-25.32a2.314,2.314,0,0,1,3.264,0l25.319,25.32c1.324,0,2.4.3,2.4,1.625S391.942,457.707,390.618,456.931Z" transform="translate(-336.047 -427.692)" fill="#fff"/>
        </g>
      </g>
    </g>
  </g>
</svg>
